UART implementation on FPGA/simulation/modelsim/uart.vcd
$date
	Thu May 02 23:11:41 2024
$end
$version
	ModelSim Version 10.1d
$end
$timescale
	1ps
$end
$scope module uart_TB $end
$var reg 8 ! data [7:0] $end
$var reg 1 " clk $end
$var reg 1 # enable $end
$var wire 1 $ Tx_busy $end
$var wire 1 % rdy $end
$var wire 1 & Rx_data [7] $end
$var wire 1 ' Rx_data [6] $end
$var wire 1 ( Rx_data [5] $end
$var wire 1 ) Rx_data [4] $end
$var wire 1 * Rx_data [3] $end
$var wire 1 + Rx_data [2] $end
$var wire 1 , Rx_data [1] $end
$var wire 1 - Rx_data [0] $end
$var wire 1 . loopback $end
$var reg 1 / ready_clr $end
$var wire 1 0 ready $end
$scope module test_uart $end
$var wire 1 1 data_in [7] $end
$var wire 1 2 data_in [6] $end
$var wire 1 3 data_in [5] $end
$var wire 1 4 data_in [4] $end
$var wire 1 5 data_in [3] $end
$var wire 1 6 data_in [2] $end
$var wire 1 7 data_in [1] $end
$var wire 1 8 data_in [0] $end
$var wire 1 9 wr_en $end
$var wire 1 : clear $end
$var wire 1 ; clk_50m $end
$var wire 1 . Tx $end
$var wire 1 $ Tx_busy $end
$var wire 1 . Rx $end
$var wire 1 0 ready $end
$var wire 1 < ready_clr $end
$var wire 1 & data_out [7] $end
$var wire 1 ' data_out [6] $end
$var wire 1 ( data_out [5] $end
$var wire 1 ) data_out [4] $end
$var wire 1 * data_out [3] $end
$var wire 1 + data_out [2] $end
$var wire 1 , data_out [1] $end
$var wire 1 - data_out [0] $end
$var wire 1 = LEDR [7] $end
$var wire 1 > LEDR [6] $end
$var wire 1 ? LEDR [5] $end
$var wire 1 @ LEDR [4] $end
$var wire 1 A LEDR [3] $end
$var wire 1 B LEDR [2] $end
$var wire 1 C LEDR [1] $end
$var wire 1 D LEDR [0] $end
$var wire 1 E Tx2 $end
$var wire 1 F Txclk_en $end
$var wire 1 G Rxclk_en $end
$scope module uart_baud $end
$var parameter 32 H RX_ACC_MAX $end
$var parameter 32 I TX_ACC_MAX $end
$var parameter 32 J RX_ACC_WIDTH $end
$var parameter 32 K TX_ACC_WIDTH $end
$var wire 1 ; clk_50m $end
$var wire 1 G Rxclk_en $end
$var wire 1 F Txclk_en $end
$var reg 5 L rx_acc [4:0] $end
$var reg 9 M tx_acc [8:0] $end
$upscope $end
$scope module uart_Tx $end
$var parameter 2 N TX_STATE_IDLE $end
$var parameter 2 O TX_STATE_START $end
$var parameter 2 P TX_STATE_DATA $end
$var parameter 2 Q TX_STATE_STOP $end
$var wire 1 1 data_in [7] $end
$var wire 1 2 data_in [6] $end
$var wire 1 3 data_in [5] $end
$var wire 1 4 data_in [4] $end
$var wire 1 5 data_in [3] $end
$var wire 1 6 data_in [2] $end
$var wire 1 7 data_in [1] $end
$var wire 1 8 data_in [0] $end
$var wire 1 9 wr_en $end
$var wire 1 ; clk_50m $end
$var wire 1 F clken $end
$var reg 1 R Tx $end
$var wire 1 $ Tx_busy $end
$var reg 8 S data [7:0] $end
$var reg 3 T bit_pos [2:0] $end
$var reg 2 U state [1:0] $end
$upscope $end
$scope module uart_Rx $end
$var parameter 2 V RX_STATE_START $end
$var parameter 2 W RX_STATE_DATA $end
$var parameter 2 X RX_STATE_STOP $end
$var wire 1 . Rx $end
$var reg 1 Y ready $end
$var wire 1 < ready_clr $end
$var wire 1 ; clk_50m $end
$var wire 1 G clken $end
$var reg 8 Z data [7:0] $end
$var reg 2 [ state [1:0] $end
$var reg 4 \ sample [3:0] $end
$var reg 4 ] bit_pos [3:0] $end
$var reg 8 ^ scratch [7:0] $end
$upscope $end
$upscope $end
$upscope $end
$enddefinitions $end
#0
$dumpvars
b0 !
0"
1#
0/
b0 L
b0 M
1R
b0 S
b0 T
b0 U
0Y
b0 Z
b0 [
b0 \
b0 ]
b0 ^
b11011 H
b110110010 I
b101 J
b1001 K
b0 N
b1 O
b10 P
b11 Q
b0 V
b1 W
b10 X
0$
z%
0-
0,
0+
0*
0)
0(
0'
0&
1.
00
1F
1G
0<
0;
19
08
07
06
05
04
03
02
01
z:
0D
0C
0B
0A
0@
0?
0>
0=
1E
$end
#1
1"
1;
b1 L
b1 M
0G
0F
#2
0"
0;
0#
09
#3
1"
1;
b10 L
b10 M
b1 U
1$
#4
0"
0;
#5
1"
1;
b11 L
b11 M
#6
0"
0;
#7
1"
1;
b100 L
b100 M
#8
0"
0;
#9
1"
1;
b101 L
b101 M
#10
0"
0;
#11
1"
1;
b110 L
b110 M
#12
0"
0;
#13
1"
1;
b111 L
b111 M
#14
0"
0;
#15
1"
1;
b1000 L
b1000 M
#16
0"
0;
#17
1"
1;
b1001 L
b1001 M
#18
0"
0;
#19
1"
1;
b1010 L
b1010 M
#20
0"
0;
#21
1"
1;
b1011 L
b1011 M
#22
0"
0;
#23
1"
1;
b1100 L
b1100 M
#24
0"
0;
#25
1"
1;
b1101 L
b1101 M
#26
0"
0;
#27
1"
1;
b1110 L
b1110 M
#28
0"
0;
#29
1"
1;
b1111 L
b1111 M
#30
0"
0;
#31
1"
1;
b10000 L
b10000 M
#32
0"
0;
#33
1"
1;
b10001 L
b10001 M
#34
0"
0;
#35
1"
1;
b10010 L
b10010 M
#36
0"
0;
#37
1"
1;
b10011 L
b10011 M
#38
0"
0;
#39
1"
1;
b10100 L
b10100 M
#40
0"
0;
#41
1"
1;
b10101 L
b10101 M
#42
0"
0;
#43
1"
1;
b10110 L
b10110 M
#44
0"
0;
#45
1"
1;
b10111 L
b10111 M
#46
0"
0;
#47
1"
1;
b11000 L
b11000 M
#48
0"
0;
#49
1"
1;
b11001 L
b11001 M
#50
0"
0;
#51
1"
1;
b11010 L
b11010 M
#52
0"
0;
#53
1"
1;
b11011 L
b11011 M
#54
0"
0;
#55
1"
1;
b0 L
b11100 M
1G
#56
0"
0;
#57
1"
1;
b1 L
b11101 M
0G
#58
0"
0;
#59
1"
1;
b10 L
b11110 M
#60
0"
0;
#61
1"
1;
b11 L
b11111 M
#62
0"
0;
#63
1"
1;
b100 L
b100000 M
#64
0"
0;
#65
1"
1;
b101 L
b100001 M
#66
0"
0;
#67
1"
1;
b110 L
b100010 M
#68
0"
0;
#69
1"
1;
b111 L
b100011 M
#70
0"
0;
#71
1"
1;
b1000 L
b100100 M
#72
0"
0;
#73
1"
1;
b1001 L
b100101 M
#74
0"
0;
#75
1"
1;
b1010 L
b100110 M
#76
0"
0;
#77
1"
1;
b1011 L
b100111 M
#78
0"
0;
#79
1"
1;
b1100 L
b101000 M
#80
0"
0;
#81
1"
1;
b1101 L
b101001 M
#82
0"
0;
#83
1"
1;
b1110 L
b101010 M
#84
0"
0;
#85
1"
1;
b1111 L
b101011 M
#86
0"
0;
#87
1"
1;
b10000 L
b101100 M
#88
0"
0;
#89
1"
1;
b10001 L
b101101 M
#90
0"
0;
#91
1"
1;
b10010 L
b101110 M
#92
0"
0;
#93
1"
1;
b10011 L
b101111 M
#94
0"
0;
#95
1"
1;
b10100 L
b110000 M
#96
0"
0;
#97
1"
1;
b10101 L
b110001 M
#98
0"
0;
#99
1"
1;
b10110 L
b110010 M
#100
0"
0;
#101
1"
1;
b10111 L
b110011 M
#102
0"
0;
#103
1"
1;
b11000 L
b110100 M
#104
0"
0;
#105
1"
1;
b11001 L
b110101 M
#106
0"
0;
#107
1"
1;
b11010 L
b110110 M
#108
0"
0;
#109
1"
1;
b11011 L
b110111 M
#110
0"
0;
#111
1"
1;
b0 L
b111000 M
1G
#112
0"
0;
#113
1"
1;
b1 L
b111001 M
0G
#114
0"
0;
#115
1"
1;
b10 L
b111010 M
#116
0"
0;
#117
1"
1;
b11 L
b111011 M
#118
0"
0;
#119
1"
1;
b100 L
b111100 M
#120
0"
0;
#121
1"
1;
b101 L
b111101 M
#122
0"
0;
#123
1"
1;
b110 L
b111110 M
#124
0"
0;
#125
1"
1;
b111 L
b111111 M
#126
0"
0;
#127
1"
1;
b1000 L
b1000000 M
#128
0"
0;
#129
1"
1;
b1001 L
b1000001 M
#130
0"
0;
#131
1"
1;
b1010 L
b1000010 M
#132
0"
0;
#133
1"
1;
b1011 L
b1000011 M
#134
0"
0;
#135
1"
1;
b1100 L
b1000100 M
#136
0"
0;
#137
1"
1;
b1101 L
b1000101 M
#138
0"
0;
#139
1"
1;
b1110 L
b1000110 M
#140
0"
0;
#141
1"
1;
b1111 L
b1000111 M
#142
0"
0;
#143
1"
1;
b10000 L
b1001000 M
#144
0"
0;
#145
1"
1;
b10001 L
b1001001 M
#146
0"
0;
#147
1"
1;
b10010 L
b1001010 M
#148
0"
0;
#149
1"
1;
b10011 L
b1001011 M
#150
0"
0;
#151
1"
1;
b10100 L
b1001100 M
#152
0"
0;
#153
1"
1;
b10101 L
b1001101 M
#154
0"
0;
#155
1"
1;
b10110 L
b1001110 M
#156
0"
0;
#157
1"
1;
b10111 L
b1001111 M
#158
0"
0;
#159
1"
1;
b11000 L
b1010000 M
#160
0"
0;
#161
1"
1;
b11001 L
b1010001 M
#162
0"
0;
#163
1"
1;
b11010 L
b1010010 M
#164
0"
0;
#165
1"
1;
b11011 L
b1010011 M
#166
0"
0;
#167
1"
1;
b0 L
b1010100 M
1G
#168
0"
0;
#169
1"
1;
b1 L
b1010101 M
0G
#170
0"
0;
#171
1"
1;
b10 L
b1010110 M
#172
0"
0;
#173
1"
1;
b11 L
b1010111 M
#174
0"
0;
#175
1"
1;
b100 L
b1011000 M
#176
0"
0;
#177
1"
1;
b101 L
b1011001 M
#178
0"
0;
#179
1"
1;
b110 L
b1011010 M
#180
0"
0;
#181
1"
1;
b111 L
b1011011 M
#182
0"
0;
#183
1"
1;
b1000 L
b1011100 M
#184
0"
0;
#185
1"
1;
b1001 L
b1011101 M
#186
0"
0;
#187
1"
1;
b1010 L
b1011110 M
#188
0"
0;
#189
1"
1;
b1011 L
b1011111 M
#190
0"
0;
#191
1"
1;
b1100 L
b1100000 M
#192
0"
0;
#193
1"
1;
b1101 L
b1100001 M
#194
0"
0;
#195
1"
1;
b1110 L
b1100010 M
#196
0"
0;
#197
1"
1;
b1111 L
b1100011 M
#198
0"
0;
#199
1"
1;
b10000 L
b1100100 M
#200
0"
0;
#201
1"
1;
b10001 L
b1100101 M
#202
0"
0;
#203
1"
1;
b10010 L
b1100110 M
#204
0"
0;
#205
1"
1;
b10011 L
b1100111 M
#206
0"
0;
#207
1"
1;
b10100 L
b1101000 M
#208
0"
0;
#209
1"
1;
b10101 L
b1101001 M
#210
0"
0;
#211
1"
1;
b10110 L
b1101010 M
#212
0"
0;
#213
1"
1;
b10111 L
b1101011 M
#214
0"
0;
#215
1"
1;
b11000 L
b1101100 M
#216
0"
0;
#217
1"
1;
b11001 L
b1101101 M
#218
0"
0;
#219
1"
1;
b11010 L
b1101110 M
#220
0"
0;
#221
1"
1;
b11011 L
b1101111 M
#222
0"
0;
#223
1"
1;
b0 L
b1110000 M
1G
#224
0"
0;
#225
1"
1;
b1 L
b1110001 M
0G
#226
0"
0;
#227
1"
1;
b10 L
b1110010 M
#228
0"
0;
#229
1"
1;
b11 L
b1110011 M
#230
0"
0;
#231
1"
1;
b100 L
b1110100 M
#232
0"
0;
#233
1"
1;
b101 L
b1110101 M
#234
0"
0;
#235
1"
1;
b110 L
b1110110 M
#236
0"
0;
#237
1"
1;
b111 L
b1110111 M
#238
0"
0;
#239
1"
1;
b1000 L
b1111000 M
#240
0"
0;
#241
1"
1;
b1001 L
b1111001 M
#242
0"
0;
#243
1"
1;
b1010 L
b1111010 M
#244
0"
0;
#245
1"
1;
b1011 L
b1111011 M
#246
0"
0;
#247
1"
1;
b1100 L
b1111100 M
#248
0"
0;
#249
1"
1;
b1101 L
b1111101 M
#250
0"
0;
#251
1"
1;
b1110 L
b1111110 M
#252
0"
0;
#253
1"
1;
b1111 L
b1111111 M
#254
0"
0;
#255
1"
1;
b10000 L
b10000000 M
#256
0"
0;
#257
1"
1;
b10001 L
b10000001 M
#258
0"
0;
#259
1"
1;
b10010 L
b10000010 M
#260
0"
0;
#261
1"
1;
b10011 L
b10000011 M
#262
0"
0;
#263
1"
1;
b10100 L
b10000100 M
#264
0"
0;
#265
1"
1;
b10101 L
b10000101 M
#266
0"
0;
#267
1"
1;
b10110 L
b10000110 M
#268
0"
0;
#269
1"
1;
b10111 L
b10000111 M
#270
0"
0;
#271
1"
1;
b11000 L
b10001000 M
#272
0"
0;
#273
1"
1;
b11001 L
b10001001 M
#274
0"
0;
#275
1"
1;
b11010 L
b10001010 M
#276
0"
0;
#277
1"
1;
b11011 L
b10001011 M
#278
0"
0;
#279
1"
1;
b0 L
b10001100 M
1G
#280
0"
0;
#281
1"
1;
b1 L
b10001101 M
0G
#282
0"
0;
#283
1"
1;
b10 L
b10001110 M
#284
0"
0;
#285
1"
1;
b11 L
b10001111 M
#286
0"
0;
#287
1"
1;
b100 L
b10010000 M
#288
0"
0;
#289
1"
1;
b101 L
b10010001 M
#290
0"
0;
#291
1"
1;
b110 L
b10010010 M
#292
0"
0;
#293
1"
1;
b111 L
b10010011 M
#294
0"
0;
#295
1"
1;
b1000 L
b10010100 M
#296
0"
0;
#297
1"
1;
b1001 L
b10010101 M
#298
0"
0;
#299
1"
1;
b1010 L
b10010110 M
#300
0"
0;
#301
1"
1;
b1011 L
b10010111 M
#302
0"
0;
#303
1"
1;
b1100 L
b10011000 M
#304
0"
0;
#305
1"
1;
b1101 L
b10011001 M
#306
0"
0;
#307
1"
1;
b1110 L
b10011010 M
#308
0"
0;
#309
1"
1;
b1111 L
b10011011 M
#310
0"
0;
#311
1"
1;
b10000 L
b10011100 M
#312
0"
0;
#313
1"
1;
b10001 L
b10011101 M
#314
0"
0;
#315
1"
1;
b10010 L
b10011110 M
#316
0"
0;
#317
1"
1;
b10011 L
b10011111 M
#318
0"
0;
#319
1"
1;
b10100 L
b10100000 M
#320
0"
0;
#321
1"
1;
b10101 L
b10100001 M
#322
0"
0;
#323
1"
1;
b10110 L
b10100010 M
#324
0"
0;
#325
1"
1;
b10111 L
b10100011 M
#326
0"
0;
#327
1"
1;
b11000 L
b10100100 M
#328
0"
0;
#329
1"
1;
b11001 L
b10100101 M
#330
0"
0;
#331
1"
1;
b11010 L
b10100110 M
#332
0"
0;
#333
1"
1;
b11011 L
b10100111 M
#334
0"
0;
#335
1"
1;
b0 L
b10101000 M
1G
#336
0"
0;
#337
1"
1;
b1 L
b10101001 M
0G
#338
0"
0;
#339
1"
1;
b10 L
b10101010 M
#340
0"
0;
#341
1"
1;
b11 L
b10101011 M
#342
0"
0;
#343
1"
1;
b100 L
b10101100 M
#344
0"
0;
#345
1"
1;
b101 L
b10101101 M
#346
0"
0;
#347
1"
1;
b110 L
b10101110 M
#348
0"
0;
#349
1"
1;
b111 L
b10101111 M
#350
0"
0;
#351
1"
1;
b1000 L
b10110000 M
#352
0"
0;
#353
1"
1;
b1001 L
b10110001 M
#354
0"
0;
#355
1"
1;
b1010 L
b10110010 M
#356
0"
0;
#357
1"
1;
b1011 L
b10110011 M
#358
0"
0;
#359
1"
1;
b1100 L
b10110100 M
#360
0"
0;
#361
1"
1;
b1101 L
b10110101 M
#362
0"
0;
#363
1"
1;
b1110 L
b10110110 M
#364
0"
0;
#365
1"
1;
b1111 L
b10110111 M
#366
0"
0;
#367
1"
1;
b10000 L
b10111000 M
#368
0"
0;
#369
1"
1;
b10001 L
b10111001 M
#370
0"
0;
#371
1"
1;
b10010 L
b10111010 M
#372
0"
0;
#373
1"
1;
b10011 L
b10111011 M
#374
0"
0;
#375
1"
1;
b10100 L
b10111100 M
#376
0"
0;
#377
1"
1;
b10101 L
b10111101 M
#378
0"
0;
#379
1"
1;
b10110 L
b10111110 M
#380
0"
0;
#381
1"
1;
b10111 L
b10111111 M
#382
0"
0;
#383
1"
1;
b11000 L
b11000000 M
#384
0"
0;
#385
1"
1;
b11001 L
b11000001 M
#386
0"
0;
#387
1"
1;
b11010 L
b11000010 M
#388
0"
0;
#389
1"
1;
b11011 L
b11000011 M
#390
0"
0;
#391
1"
1;
b0 L
b11000100 M
1G
#392
0"
0;
#393
1"
1;
b1 L
b11000101 M
0G
#394
0"
0;
#395
1"
1;
b10 L
b11000110 M
#396
0"
0;
#397
1"
1;
b11 L
b11000111 M
#398
0"
0;
#399
1"
1;
b100 L
b11001000 M
#400
0"
0;
#401
1"
1;
b101 L
b11001001 M
#402
0"
0;
#403
1"
1;
b110 L
b11001010 M
#404
0"
0;
#405
1"
1;
b111 L
b11001011 M
#406
0"
0;
#407
1"
1;
b1000 L
b11001100 M
#408
0"
0;
#409
1"
1;
b1001 L
b11001101 M
#410
0"
0;
#411
1"
1;
b1010 L
b11001110 M
#412
0"
0;
#413
1"
1;
b1011 L
b11001111 M
#414
0"
0;
#415
1"
1;
b1100 L
b11010000 M
#416
0"
0;
#417
1"
1;
b1101 L
b11010001 M
#418
0"
0;
#419
1"
1;
b1110 L
b11010010 M
#420
0"
0;
#421
1"
1;
b1111 L
b11010011 M
#422
0"
0;
#423
1"
1;
b10000 L
b11010100 M
#424
0"
0;
#425
1"
1;
b10001 L
b11010101 M
#426
0"
0;
#427
1"
1;
b10010 L
b11010110 M
#428
0"
0;
#429
1"
1;
b10011 L
b11010111 M
#430
0"
0;
#431
1"
1;
b10100 L
b11011000 M
#432
0"
0;
#433
1"
1;
b10101 L
b11011001 M
#434
0"
0;
#435
1"
1;
b10110 L
b11011010 M
#436
0"
0;
#437
1"
1;
b10111 L
b11011011 M
#438
0"
0;
#439
1"
1;
b11000 L
b11011100 M
#440
0"
0;
#441
1"
1;
b11001 L
b11011101 M
#442
0"
0;
#443
1"
1;
b11010 L
b11011110 M
#444
0"
0;
#445
1"
1;
b11011 L
b11011111 M
#446
0"
0;
#447
1"
1;
b0 L
b11100000 M
1G
#448
0"
0;
#449
1"
1;
b1 L
b11100001 M
0G
#450
0"
0;
#451
1"
1;
b10 L
b11100010 M
#452
0"
0;
#453
1"
1;
b11 L
b11100011 M
#454
0"
0;
#455
1"
1;
b100 L
b11100100 M
#456
0"
0;
#457
1"
1;
b101 L
b11100101 M
#458
0"
0;
#459
1"
1;
b110 L
b11100110 M
#460
0"
0;
#461
1"
1;
b111 L
b11100111 M
#462
0"
0;
#463
1"
1;
b1000 L
b11101000 M
#464
0"
0;
#465
1"
1;
b1001 L
b11101001 M
#466
0"
0;
#467
1"
1;
b1010 L
b11101010 M
#468
0"
0;
#469
1"
1;
b1011 L
b11101011 M
#470
0"
0;
#471
1"
1;
b1100 L
b11101100 M
#472
0"
0;
#473
1"
1;
b1101 L
b11101101 M
#474
0"
0;
#475
1"
1;
b1110 L
b11101110 M
#476
0"
0;
#477
1"
1;
b1111 L
b11101111 M
#478
0"
0;
#479
1"
1;
b10000 L
b11110000 M
#480
0"
0;
#481
1"
1;
b10001 L
b11110001 M
#482
0"
0;
#483
1"
1;
b10010 L
b11110010 M
#484
0"
0;
#485
1"
1;
b10011 L
b11110011 M
#486
0"
0;
#487
1"
1;
b10100 L
b11110100 M
#488
0"
0;
#489
1"
1;
b10101 L
b11110101 M
#490
0"
0;
#491
1"
1;
b10110 L
b11110110 M
#492
0"
0;
#493
1"
1;
b10111 L
b11110111 M
#494
0"
0;
#495
1"
1;
b11000 L
b11111000 M
#496
0"
0;
#497
1"
1;
b11001 L
b11111001 M
#498
0"
0;
#499
1"
1;
b11010 L
b11111010 M
#500
0"
0;
#501
1"
1;
b11011 L
b11111011 M
#502
0"
0;
#503
1"
1;
b0 L
b11111100 M
1G
#504
0"
0;
#505
1"
1;
b1 L
b11111101 M
0G
#506
0"
0;
#507
1"
1;
b10 L
b11111110 M
#508
0"
0;
#509
1"
1;
b11 L
b11111111 M
#510
0"
0;
#511
1"
1;
b100 L
b100000000 M
#512
0"
0;
#513
1"
1;
b101 L
b100000001 M
#514
0"
0;
#515
1"
1;
b110 L
b100000010 M
#516
0"
0;
#517
1"
1;
b111 L
b100000011 M
#518
0"
0;
#519
1"
1;
b1000 L
b100000100 M
#520
0"
0;
#521
1"
1;
b1001 L
b100000101 M
#522
0"
0;
#523
1"
1;
b1010 L
b100000110 M
#524
0"
0;
#525
1"
1;
b1011 L
b100000111 M
#526
0"
0;
#527
1"
1;
b1100 L
b100001000 M
#528
0"
0;
#529
1"
1;
b1101 L
b100001001 M
#530
0"
0;
#531
1"
1;
b1110 L
b100001010 M
#532
0"
0;
#533
1"
1;
b1111 L
b100001011 M
#534
0"
0;
#535
1"
1;
b10000 L
b100001100 M
#536
0"
0;
#537
1"
1;
b10001 L
b100001101 M
#538
0"
0;
#539
1"
1;
b10010 L
b100001110 M
#540
0"
0;
#541
1"
1;
b10011 L
b100001111 M
#542
0"
0;
#543
1"
1;
b10100 L
b100010000 M
#544
0"
0;
#545
1"
1;
b10101 L
b100010001 M
#546
0"
0;
#547
1"
1;
b10110 L
b100010010 M
#548
0"
0;
#549
1"
1;
b10111 L
b100010011 M
#550
0"
0;
#551
1"
1;
b11000 L
b100010100 M
#552
0"
0;
#553
1"
1;
b11001 L
b100010101 M
#554
0"
0;
#555
1"
1;
b11010 L
b100010110 M
#556
0"
0;
#557
1"
1;
b11011 L
b100010111 M
#558
0"
0;
#559
1"
1;
b0 L
b100011000 M
1G
#560
0"
0;
#561
1"
1;
b1 L
b100011001 M
0G
#562
0"
0;
#563
1"
1;
b10 L
b100011010 M
#564
0"
0;
#565
1"
1;
b11 L
b100011011 M
#566
0"
0;
#567
1"
1;
b100 L
b100011100 M
#568
0"
0;
#569
1"
1;
b101 L
b100011101 M
#570
0"
0;
#571
1"
1;
b110 L
b100011110 M
#572
0"
0;
#573
1"
1;
b111 L
b100011111 M
#574
0"
0;
#575
1"
1;
b1000 L
b100100000 M
#576
0"
0;
#577
1"
1;
b1001 L
b100100001 M
#578
0"
0;
#579
1"
1;
b1010 L
b100100010 M
#580
0"
0;
#581
1"
1;
b1011 L
b100100011 M
#582
0"
0;
#583
1"
1;
b1100 L
b100100100 M
#584
0"
0;
#585
1"
1;
b1101 L
b100100101 M
#586
0"
0;
#587
1"
1;
b1110 L
b100100110 M
#588
0"
0;
#589
1"
1;
b1111 L
b100100111 M
#590
0"
0;
#591
1"
1;
b10000 L
b100101000 M
#592
0"
0;
#593
1"
1;
b10001 L
b100101001 M
#594
0"
0;
#595
1"
1;
b10010 L
b100101010 M
#596
0"
0;
#597
1"
1;
b10011 L
b100101011 M
#598
0"
0;
#599
1"
1;
b10100 L
b100101100 M
#600
0"
0;
#601
1"
1;
b10101 L
b100101101 M
#602
0"
0;
#603
1"
1;
b10110 L
b100101110 M
#604
0"
0;
#605
1"
1;
b10111 L
b100101111 M
#606
0"
0;
#607
1"
1;
b11000 L
b100110000 M
#608
0"
0;
#609
1"
1;
b11001 L
b100110001 M
#610
0"
0;
#611
1"
1;
b11010 L
b100110010 M
#612
0"
0;
#613
1"
1;
b11011 L
b100110011 M
#614
0"
0;
#615
1"
1;
b0 L
b100110100 M
1G
#616
0"
0;
#617
1"
1;
b1 L
b100110101 M
0G
#618
0"
0;
#619
1"
1;
b10 L
b100110110 M
#620
0"
0;
#621
1"
1;
b11 L
b100110111 M
#622
0"
0;
#623
1"
1;
b100 L
b100111000 M
#624
0"
0;
#625
1"
1;
b101 L
b100111001 M
#626
0"
0;
#627
1"
1;
b110 L
b100111010 M
#628
0"
0;
#629
1"
1;
b111 L
b100111011 M
#630
0"
0;
#631
1"
1;
b1000 L
b100111100 M
#632
0"
0;
#633
1"
1;
b1001 L
b100111101 M
#634
0"
0;
#635
1"
1;
b1010 L
b100111110 M
#636
0"
0;
#637
1"
1;
b1011 L
b100111111 M
#638
0"
0;
#639
1"
1;
b1100 L
b101000000 M
#640
0"
0;
#641
1"
1;
b1101 L
b101000001 M
#642
0"
0;
#643
1"
1;
b1110 L
b101000010 M
#644
0"
0;
#645
1"
1;
b1111 L
b101000011 M
#646
0"
0;
#647
1"
1;
b10000 L
b101000100 M
#648
0"
0;
#649
1"
1;
b10001 L
b101000101 M
#650
0"
0;
#651
1"
1;
b10010 L
b101000110 M
#652
0"
0;
#653
1"
1;
b10011 L
b101000111 M
#654
0"
0;
#655
1"
1;
b10100 L
b101001000 M
#656
0"
0;
#657
1"
1;
b10101 L
b101001001 M
#658
0"
0;
#659
1"
1;
b10110 L
b101001010 M
#660
0"
0;
#661
1"
1;
b10111 L
b101001011 M
#662
0"
0;
#663
1"
1;
b11000 L
b101001100 M
#664
0"
0;
#665
1"
1;
b11001 L
b101001101 M
#666
0"
0;
#667
1"
1;
b11010 L
b101001110 M
#668
0"
0;
#669
1"
1;
b11011 L
b101001111 M
#670
0"
0;
#671
1"
1;
b0 L
b101010000 M
1G
#672
0"
0;
#673
1"
1;
b1 L
b101010001 M
0G
#674
0"
0;
#675
1"
1;
b10 L
b101010010 M
#676
0"
0;
#677
1"
1;
b11 L
b101010011 M
#678
0"
0;
#679
1"
1;
b100 L
b101010100 M
#680
0"
0;
#681
1"
1;
b101 L
b101010101 M
#682
0"
0;
#683
1"
1;
b110 L
b101010110 M
#684
0"
0;
#685
1"
1;
b111 L
b101010111 M
#686
0"
0;
#687
1"
1;
b1000 L
b101011000 M
#688
0"
0;
#689
1"
1;
b1001 L
b101011001 M
#690
0"
0;
#691
1"
1;
b1010 L
b101011010 M
#692
0"
0;
#693
1"
1;
b1011 L
b101011011 M
#694
0"
0;
#695
1"
1;
b1100 L
b101011100 M
#696
0"
0;
#697
1"
1;
b1101 L
b101011101 M
#698
0"
0;
#699
1"
1;
b1110 L
b101011110 M
#700
0"
0;
#701
1"
1;
b1111 L
b101011111 M
#702
0"
0;
#703
1"
1;
b10000 L
b101100000 M
#704
0"
0;
#705
1"
1;
b10001 L
b101100001 M
#706
0"
0;
#707
1"
1;
b10010 L
b101100010 M
#708
0"
0;
#709
1"
1;
b10011 L
b101100011 M
#710
0"
0;
#711
1"
1;
b10100 L
b101100100 M
#712
0"
0;
#713
1"
1;
b10101 L
b101100101 M
#714
0"
0;
#715
1"
1;
b10110 L
b101100110 M
#716
0"
0;
#717
1"
1;
b10111 L
b101100111 M
#718
0"
0;
#719
1"
1;
b11000 L
b101101000 M
#720
0"
0;
#721
1"
1;
b11001 L
b101101001 M
#722
0"
0;
#723
1"
1;
b11010 L
b101101010 M
#724
0"
0;
#725
1"
1;
b11011 L
b101101011 M
#726
0"
0;
#727
1"
1;
b0 L
b101101100 M
1G
#728
0"
0;
#729
1"
1;
b1 L
b101101101 M
0G
#730
0"
0;
#731
1"
1;
b10 L
b101101110 M
#732
0"
0;
#733
1"
1;
b11 L
b101101111 M
#734
0"
0;
#735
1"
1;
b100 L
b101110000 M
#736
0"
0;
#737
1"
1;
b101 L
b101110001 M
#738
0"
0;
#739
1"
1;
b110 L
b101110010 M
#740
0"
0;
#741
1"
1;
b111 L
b101110011 M
#742
0"
0;
#743
1"
1;
b1000 L
b101110100 M
#744
0"
0;
#745
1"
1;
b1001 L
b101110101 M
#746
0"
0;
#747
1"
1;
b1010 L
b101110110 M
#748
0"
0;
#749
1"
1;
b1011 L
b101110111 M
#750
0"
0;
#751
1"
1;
b1100 L
b101111000 M
#752
0"
0;
#753
1"
1;
b1101 L
b101111001 M
#754
0"
0;
#755
1"
1;
b1110 L
b101111010 M
#756
0"
0;
#757
1"
1;
b1111 L
b101111011 M
#758
0"
0;
#759
1"
1;
b10000 L
b101111100 M
#760
0"
0;
#761
1"
1;
b10001 L
b101111101 M
#762
0"
0;
#763
1"
1;
b10010 L
b101111110 M
#764
0"
0;
#765
1"
1;
b10011 L
b101111111 M
#766
0"
0;
#767
1"
1;
b10100 L
b110000000 M
#768
0"
0;
#769
1"
1;
b10101 L
b110000001 M
#770
0"
0;
#771
1"
1;
b10110 L
b110000010 M
#772
0"
0;
#773
1"
1;
b10111 L
b110000011 M
#774
0"
0;
#775
1"
1;
b11000 L
b110000100 M
#776
0"
0;
#777
1"
1;
b11001 L
b110000101 M
#778
0"
0;
#779
1"
1;
b11010 L
b110000110 M
#780
0"
0;
#781
1"
1;
b11011 L
b110000111 M
#782
0"
0;
#783
1"
1;
b0 L
b110001000 M
1G
#784
0"
0;
#785
1"
1;
b1 L
b110001001 M
0G
#786
0"
0;
#787
1"
1;
b10 L
b110001010 M
#788
0"
0;
#789
1"
1;
b11 L
b110001011 M
#790
0"
0;
#791
1"
1;
b100 L
b110001100 M
#792
0"
0;
#793
1"
1;
b101 L
b110001101 M
#794
0"
0;
#795
1"
1;
b110 L
b110001110 M
#796
0"
0;
#797
1"
1;
b111 L
b110001111 M
#798
0"
0;
#799
1"
1;
b1000 L
b110010000 M
#800
0"
0;
#801
1"
1;
b1001 L
b110010001 M
#802
0"
0;
#803
1"
1;
b1010 L
b110010010 M
#804
0"
0;
#805
1"
1;
b1011 L
b110010011 M
#806
0"
0;
#807
1"
1;
b1100 L
b110010100 M
#808
0"
0;
#809
1"
1;
b1101 L
b110010101 M
#810
0"
0;
#811
1"
1;
b1110 L
b110010110 M
#812
0"
0;
#813
1"
1;
b1111 L
b110010111 M
#814
0"
0;
#815
1"
1;
b10000 L
b110011000 M
#816
0"
0;
#817
1"
1;
b10001 L
b110011001 M
#818
0"
0;
#819
1"
1;
b10010 L
b110011010 M
#820
0"
0;
#821
1"
1;
b10011 L
b110011011 M
#822
0"
0;
#823
1"
1;
b10100 L
b110011100 M
#824
0"
0;
#825
1"
1;
b10101 L
b110011101 M
#826
0"
0;
#827
1"
1;
b10110 L
b110011110 M
#828
0"
0;
#829
1"
1;
b10111 L
b110011111 M
#830
0"
0;
#831
1"
1;
b11000 L
b110100000 M
#832
0"
0;
#833
1"
1;
b11001 L
b110100001 M
#834
0"
0;
#835
1"
1;
b11010 L
b110100010 M
#836
0"
0;
#837
1"
1;
b11011 L
b110100011 M
#838
0"
0;
